<svg width="356" height="344" viewBox="0 0 356 344" fill="none" xmlns="http://www.w3.org/2000/svg">
<g filter="url(#filter0_d_111_6)">
<line y1="-0.5" x2="50.6597" y2="-0.5" transform="matrix(-0.282917 0.959144 -0.843238 -0.53754 254.768 113.09)" stroke="white"/>
<line y1="-0.5" x2="31.498" y2="-0.5" transform="matrix(-0.965775 0.259381 -0.123325 -0.992366 253.305 107.07)" stroke="white"/>
<line y1="-0.5" x2="41.6733" y2="-0.5" transform="matrix(0.645738 -0.763559 0.479994 0.877272 258.277 103.63)" stroke="white"/>
<line y1="-0.5" x2="32.6936" y2="-0.5" transform="matrix(-0.447336 -0.894366 0.679088 -0.734057 255.645 103.2)" stroke="white"/>
<line y1="-0.5" x2="34.9424" y2="-0.5" transform="matrix(0.962655 0.270731 -0.129043 0.991639 220.545 95.8904)" stroke="white"/>
<line y1="-0.5" x2="18.2574" y2="-0.5" transform="matrix(0.977276 0.211969 -0.0998605 0.995001 257.693 106.21)" stroke="white"/>
<line y1="-0.5" x2="35.9687" y2="-0.5" transform="matrix(-0.731887 0.681426 -0.395658 -0.918398 337.545 71.3801)" stroke="white"/>
<line y1="-0.5" x2="37.658" y2="-0.5" transform="matrix(0.240786 -0.970578 0.881321 0.472519 341.64 65.3596)" stroke="white"/>
<line y1="-0.5" x2="12.6481" y2="-0.5" transform="matrix(0.578149 0.815931 -0.546767 0.837285 343.395 71.8103)" stroke="white"/>
<g filter="url(#filter1_d_111_6)">
<ellipse cx="288.377" cy="237.79" rx="6.11498" ry="6.45" fill="white"/>
</g>
<g filter="url(#filter2_d_111_6)">
<ellipse cx="340.177" cy="68.7999" rx="4.3875" ry="6.45" fill="white"/>
</g>
<g filter="url(#filter3_d_111_6)">
<ellipse cx="256.23" cy="107.93" rx="4.3875" ry="6.45" fill="white"/>
</g>
<line y1="-0.5" x2="81.6172" y2="-0.5" transform="matrix(-0.422889 0.906182 -0.704091 -0.710109 284.31 241.66)" stroke="white"/>
<line y1="-0.5" x2="67.2233" y2="-0.5" transform="matrix(0.0652675 0.997868 -0.990157 0.139963 286.65 242.52)" stroke="white"/>
<line y1="-0.5" x2="46.7252" y2="-0.5" transform="matrix(0.45072 0.892665 -0.675628 0.737243 287.82 239.08)" stroke="white"/>
</g>
<defs>
<filter id="filter0_d_111_6" x="216.545" y="28.3372" width="138.709" height="295.993" filterUnits="userSpaceOnUse" color-interpolation-filters="sRGB">
<feFlood flood-opacity="0" result="BackgroundImageFix"/>
<feColorMatrix in="SourceAlpha" type="matrix" values="0 0 0 0 0 0 0 0 0 0 0 0 0 0 0 0 0 0 127 0" result="hardAlpha"/>
<feOffset dy="4"/>
<feGaussianBlur stdDeviation="2"/>
<feComposite in2="hardAlpha" operator="out"/>
<feColorMatrix type="matrix" values="0 0 0 0 0 0 0 0 0 0 0 0 0 0 0 0 0 0 0.25 0"/>
<feBlend mode="normal" in2="BackgroundImageFix" result="effect1_dropShadow_111_6"/>
<feBlend mode="normal" in="SourceGraphic" in2="effect1_dropShadow_111_6" result="shape"/>
</filter>
<filter id="filter1_d_111_6" x="272.262" y="221.34" width="32.23" height="32.8999" filterUnits="userSpaceOnUse" color-interpolation-filters="sRGB">
<feFlood flood-opacity="0" result="BackgroundImageFix"/>
<feColorMatrix in="SourceAlpha" type="matrix" values="0 0 0 0 0 0 0 0 0 0 0 0 0 0 0 0 0 0 127 0" result="hardAlpha"/>
<feMorphology radius="5" operator="dilate" in="SourceAlpha" result="effect1_dropShadow_111_6"/>
<feOffset/>
<feGaussianBlur stdDeviation="2.5"/>
<feColorMatrix type="matrix" values="0 0 0 0 1 0 0 0 0 1 0 0 0 0 1 0 0 0 0.76 0"/>
<feBlend mode="normal" in2="BackgroundImageFix" result="effect1_dropShadow_111_6"/>
<feBlend mode="normal" in="SourceGraphic" in2="effect1_dropShadow_111_6" result="shape"/>
</filter>
<filter id="filter2_d_111_6" x="325.79" y="52.3499" width="28.775" height="32.8999" filterUnits="userSpaceOnUse" color-interpolation-filters="sRGB">
<feFlood flood-opacity="0" result="BackgroundImageFix"/>
<feColorMatrix in="SourceAlpha" type="matrix" values="0 0 0 0 0 0 0 0 0 0 0 0 0 0 0 0 0 0 127 0" result="hardAlpha"/>
<feMorphology radius="5" operator="dilate" in="SourceAlpha" result="effect1_dropShadow_111_6"/>
<feOffset/>
<feGaussianBlur stdDeviation="2.5"/>
<feColorMatrix type="matrix" values="0 0 0 0 1 0 0 0 0 1 0 0 0 0 1 0 0 0 0.76 0"/>
<feBlend mode="normal" in2="BackgroundImageFix" result="effect1_dropShadow_111_6"/>
<feBlend mode="normal" in="SourceGraphic" in2="effect1_dropShadow_111_6" result="shape"/>
</filter>
<filter id="filter3_d_111_6" x="241.842" y="91.48" width="28.775" height="32.8999" filterUnits="userSpaceOnUse" color-interpolation-filters="sRGB">
<feFlood flood-opacity="0" result="BackgroundImageFix"/>
<feColorMatrix in="SourceAlpha" type="matrix" values="0 0 0 0 0 0 0 0 0 0 0 0 0 0 0 0 0 0 127 0" result="hardAlpha"/>
<feMorphology radius="5" operator="dilate" in="SourceAlpha" result="effect1_dropShadow_111_6"/>
<feOffset/>
<feGaussianBlur stdDeviation="2.5"/>
<feColorMatrix type="matrix" values="0 0 0 0 1 0 0 0 0 1 0 0 0 0 1 0 0 0 0.76 0"/>
<feBlend mode="normal" in2="BackgroundImageFix" result="effect1_dropShadow_111_6"/>
<feBlend mode="normal" in="SourceGraphic" in2="effect1_dropShadow_111_6" result="shape"/>
</filter>
</defs>
</svg>
